…
``` r
loan %>%
  pivot_longer(cols = !where(is.numeric), names_to = "column", values_to="value") %>%
  dplyr::select(column, value) %>%
  group_by(column) %>%
  summarise(sum = n(),
            n_miss = sum(is.na(value)),
            n_distinct = n_distinct(value)) %>%
  mutate(count = sum - n_miss, 
         pct_distinct = paste(round(100*n_distinct / sum,2),"%"), 
         pct_miss = paste(round(100*n_miss / sum,2),"%")) %>%
  arrange(desc(100*n_distinct / sum))
```

    ## # A tibble: 23 × 7
    ##    column               sum n_miss n_distinct count pct_distinct pct_miss
    ##    <chr>              <int>  <int>      <int> <int> <chr>        <chr>   
    ##  1 url                29774      0      29774 29774 100 %        0 %     
    ##  2 emp_title          29774   1814      22144 27960 74.37 %      6.09 %  
    ##  3 desc               29774   9429      20311 20345 68.22 %      31.67 % 
    ##  4 title              29774     10      15201 29764 51.05 %      0.03 %  
    ##  5 revol_util         29774     64       1095 29710 3.68 %       0.21 %  
    ##  6 zip_code           29774      0        819 29774 2.75 %       0 %     
    ##  7 earliest_cr_line   29774     20        517 29754 1.74 %       0.07 %  
    ##  8 int_rate           29774      0        390 29774 1.31 %       0 %     
    ##  9 last_credit_pull_d 29774      2        110 29772 0.37 %       0.01 %  
    ## 10 last_pymnt_d       29774     64        107 29710 0.36 %       0.21 %  
    ## # … with 13 more rows
…
  pivot_longer(cols = where(is.numeric), names_to = "column", values_to="value") %>%
  dplyr::select(column, value) %>%
  group_by(column) %>%
  summarise(count = n(),
            n_miss = sum(is.na(value)),
            n_distinct = n_distinct(value),
            mean = round(mean(value, na.rm = TRUE),5),
            median = median(value, na.rm = TRUE),
            min = min(value, na.rm = TRUE),
            max = max(value, na.rm = TRUE),
            sd = sd(value, na.rm = TRUE),
            )
```

    ## # A tibble: 29 × 9
    ##    column               count n_miss n_dis…¹    mean median   min    max      sd
    ##    <chr>                <int>  <int>   <int>   <dbl>  <dbl> <dbl>  <dbl>   <dbl>
    ##  1 acc_now_delinq       29774     20       3 1.3 e-4 0          0 1   e0 1.16e-2
    ##  2 annual_inc           29774      1    4287 6.92e+4 5.9 e4  2000 6   e6 6.66e+4
    ##  3 chargeoff_within_12… 29774    101       2 0       0          0 0      0      
    ##  4 collections_12_mths… 29774    101       2 0       0          0 0      0      
    ##  5 delinq_2yrs          29774     20      12 1.55e-1 0          0 1.3 e1 5.24e-1
    ##  6 delinq_amnt          29774     20       4 2.04e-1 0          0 6.05e3 3.51e+1
    ##  7 dti                  29774      0    2846 1.34e+1 1.35e1     0 3.00e1 6.74e+0
    ##  8 fico_range_high      29774      0      43 7.17e+2 7.14e2   614 8.29e2 3.63e+1
    ##  9 fico_range_low       29774      0      43 7.13e+2 7.1 e2   610 8.25e2 3.63e+1
    ## 10 funded_amnt          29774      0     981 1.08e+4 9.6 e3   500 3.5 e4 7.15e+3
    ## # … with 19 more rows, and abbreviated variable name ¹​n_distinct
…
# Define Recipe for neural network 
nn_recipe <- recipe(loan_status ~ loan_amnt+term+grade+sub_grade+emp_length+home_ownership+annual_inc+verification_status+pymnt_plan+purpose+addr_state+dti+delinq_2yrs+fico_range_low+fico_range_high+inq_last_6mths+open_acc+pub_rec+revol_bal+total_acc+out_prncp+out_prncp_inv+total_rec_late_fee+last_pymnt_amnt+collections_12_mths_ex_med+policy_code+application_type+acc_now_delinq+chargeoff_within_12_mths+delinq_amnt+pub_rec_bankruptcies+tax_liens+issue_d+earliest_cr_line+last_pymnt_d+next_pymnt_d+last_credit_pull_d,data = train) %>%
    step_unknown(all_nominal_predictors()) %>%
    step_normalize(all_numeric_predictors()) %>% 
  step_impute_median(all_numeric_predictors()) %>%
  step_normalize(all_numeric_predictors())  %>%
  themis::step_downsample(loan_status,under_ratio = 1) %>% #down sample to 1:1
  step_nzv(all_nominal_predictors()) %>%
  step_zv(all_predictors()) %>% 
  step_dummy(all_nominal_predictors())

bake(rf_recipe %>% prep(), train %>% sample_n(1000))
```

    ## # A tibble: 1,000 × 828
    ##    loan_…¹ annua…²   dti delin…³ fico_…⁴ fico_…⁵ inq_l…⁶ open_…⁷ pub_rec revol…⁸
    ##      <dbl>   <dbl> <dbl>   <dbl>   <dbl>   <dbl>   <dbl>   <dbl>   <dbl>   <dbl>
    ##  1    4000   36000  0.67       0     660     664       1       3       0     103
    ##  2   10000   44000 23.7        1     660     664       1       5       0    7597
    ##  3   20000   65000 13.2        0     755     759       0      10       0    4137
    ##  4   12000   48672 14.7        1     725     729       0      13       0    9775
    ##  5    1000   38000 15.5        0     665     669       2       8       0   10118
    ##  6   15000   90000 14.4        0     705     709       1       9       0   13499
    ##  7    6000  112000 23.7        0     685     689       3      13       0   35212
    ##  8   10000   35000 12.7        0     680     684       0       9       0    9137
    ##  9   12000   50000 12.6        0     710     714       2      11       0   11957
    ## 10   10000   40000 16.5        0     720     724       2      10       0    5076
    ## # … with 990 more rows, 818 more variables: total_acc <dbl>, out_prncp <dbl>,
    ## #   out_prncp_inv <dbl>, total_rec_late_fee <dbl>, last_pymnt_amnt <dbl>,
    ## #   collections_12_mths_ex_med <dbl>, policy_code <dbl>, acc_now_delinq <dbl>,
    ## #   chargeoff_within_12_mths <dbl>, delinq_amnt <dbl>,
    ## #   pub_rec_bankruptcies <dbl>, tax_liens <dbl>, loan_status <fct>,
    ## #   term_X60.months <int>, term_unknown <int>, grade_B <int>, grade_C <int>,
    ## #   grade_D <int>, grade_E <int>, grade_F <int>, grade_G <int>, …

``` r
bake(nn_recipe %>% prep(), train %>% sample_n(1000))
```

    ## Warning: Column(s) have zero variance so scaling cannot be used: `collections_12_mths_ex_med`, `policy_code` and `chargeoff_within_12_mths`. Consider using `step_zv()` to remove those columns before normalizing
    ## Column(s) have zero variance so scaling cannot be used: `collections_12_mths_ex_med`, `policy_code` and `chargeoff_within_12_mths`. Consider using `step_zv()` to remove those columns before normalizing

    ## # A tibble: 1,000 × 823
    ##    loan_amnt annual_inc    dti delinq_…¹ fico_…² fico_…³ inq_l…⁴ open_…⁵ pub_rec
    ##        <dbl>      <dbl>  <dbl>     <dbl>   <dbl>   <dbl>   <dbl>   <dbl>   <dbl>
    ##  1    -1.16      0.241   0.447    -0.291 -0.0807 -0.0807   1.22   0.147    3.78 
    ##  2     1.20     -0.317  -1.65     -0.291  0.194   0.194   -0.688 -0.522   -0.239
    ##  3    -0.376     0.563   0.246    -0.291  1.43    1.43     0.581 -0.0760  -0.239
    ##  4    -1.16      0.165  -1.98      1.59   0.332   0.332   -0.688 -1.64    -0.239
    ##  5    -0.285    -0.408  -1.59     -0.291  2.26    2.26    -0.688  2.16    -0.239
    ##  6     0.120    -0.0457 -1.35     -0.291  1.84    1.84     0.581  0.817   -0.239
    ##  7     2.28      0.0900 -1.08     -0.291  1.71    1.71     0.581  0.370   -0.239
    ##  8    -1.09     -0.257  -0.327    -0.291  1.71    1.71    -0.688  0.147   -0.239
    ##  9    -0.365    -0.586  -1.46     -0.291 -0.906  -0.906   -0.688 -0.969   -0.239
    ## 10     0.525    -0.136   0.145    -0.291  1.57    1.57     0.581 -0.0760  -0.239
    ## # … with 990 more rows, 814 more variables: revol_bal <dbl>, total_acc <dbl>,
    ## #   out_prncp <dbl>, out_prncp_inv <dbl>, total_rec_late_fee <dbl>,
    ## #   last_pymnt_amnt <dbl>, acc_now_delinq <dbl>, pub_rec_bankruptcies <dbl>,
    ## #   loan_status <fct>, term_X60.months <int>, term_unknown <int>,
    ## #   grade_B <int>, grade_C <int>, grade_D <int>, grade_E <int>, grade_F <int>,
    ## #   grade_G <int>, grade_unknown <int>, sub_grade_A2 <int>, sub_grade_A3 <int>,
    ## #   sub_grade_A4 <int>, sub_grade_A5 <int>, sub_grade_B1 <int>, …
…
